0 3.89452548e-04
1 3.32885651e-04
2 9.27230203e-04
3 -7.41495492e-04
4 9.83133991e-04
5 -8.57307668e-04
6 2.15437509e-04
7 4.45077282e-04
8 4.53521972e-04
9 1.72718544e-03
10 -4.50544731e-04
11 5.87673200e-04
12 3.52249174e-04
13 1.55042996e-03
14 -2.89547192e-04
15 1.42932319e-03
16 -6.80477483e-05
17 4.81170934e-04
18 1.90829351e-03
19 9.33712192e-04
20 -8.88696609e-04
21 -4.38431172e-04
22 -1.16507096e-04
23 4.24880775e-04
24 5.15896201e-04
25 -6.40601635e-06
26 7.24150852e-04
27 8.62396872e-04
28 7.33806609e-04
29 1.18300287e-03
30 -1.07965624e-04
31 9.54397109e-04
32 6.72892474e-05
33 5.54084795e-04
34 1.40062499e-03
35 4.35236393e-04
36 1.60706722e-04
37 1.32165565e-05
38 3.18058497e-04
39 1.44848699e-04
40 5.11058166e-04
41 1.24522344e-03
42 -3.43767227e-04
43 5.95612694e-04
44 1.44348105e-03
45 -1.05620388e-04
46 1.03418319e-03
47 1.37263265e-03
48 1.15305727e-03
49 6.13495018e-04
50 3.41840796e-04
51 5.88159280e-05
52 7.20234008e-04
53 1.29698868e-03
54 -1.05373318e-03
55 -2.78860390e-04
56 7.95070403e-04
57 1.10673395e-03
58 6.70875456e-04
59 1.25214357e-03
60 -3.01515214e-04
61 1.20283438e-03
62 4.89688421e-04
63 4.54280953e-04
64 8.42392368e-04
65 -4.04711887e-05
66 -6.01599851e-05
67 4.63790133e-04
68 5.15068932e-04
69 5.66517353e-04
70 2.02561360e-04
71 1.52742523e-04
72 7.95382179e-04
73 1.29260577e-03
74 1.77101687e-03
75 9.44114386e-04
76 9.95704727e-04
77 1.01523894e-03
78 4.32100751e-04
79 -1.39275160e-04
80 5.33937657e-04
81 2.57415687e-03
82 1.10004178e-03
83 1.06966380e-03
84 9.35805733e-04
85 1.42933545e-04
86 8.20516071e-04
87 7.69388794e-04
88 1.27616233e-03
89 -3.28390212e-04
90 3.52233708e-06
91 1.02134124e-03
92 5.70454512e-04
93 1.69251851e-03
94 1.70007398e-03
95 8.66919894e-04
96 1.46109563e-03
97 9.36763222e-04
98 1.01675040e-03
99 5.46616972e-04
100 -7.78888552e-05
101 1.04498976e-03
102 1.14885057e-03
103 5.65747784e-04
104 9.86253596e-04
105 -4.41997525e-04
106 8.13535450e-04
107 6.54972498e-04
108 1.31880949e-03
109 2.86214764e-04
110 1.27692531e-03
111 5.69589962e-04
112 1.37118650e-03
113 3.21162363e-04
114 1.29790154e-03
115 -6.82510825e-05
116 1.78350120e-03
117 5.54753443e-04
118 5.57265908e-04
119 -3.27140900e-04
120 2.72047516e-04
121 6.90910266e-04
122 5.78814645e-04
123 6.17566884e-04
124 8.65601320e-04
125 7.99812300e-04
126 9.40565991e-04
127 5.20055189e-05
128 -1.58211057e-04
129 9.60111175e-04
130 8.00962555e-04
131 1.09202661e-03
132 5.38789277e-04
133 2.71410148e-04
134 1.81814317e-04
135 5.07367491e-04
136 2.19174987e-04
137 -1.70806489e-04
138 1.08709295e-03
139 1.35699209e-03
140 7.97103669e-04
141 2.16744475e-04
142 8.00649044e-05
143 3.86053496e-04
144 -7.66292266e-04
145 1.07433616e-03
146 6.19545312e-04
147 9.16415573e-04
148 6.90563846e-04
149 4.31138007e-04
150 1.71270887e-03
151 1.04869751e-03
152 1.24683375e-03
153 -2.25092564e-04
154 -4.22971613e-04
155 -6.33365809e-04
156 -1.46763065e-04
157 -3.62051234e-04
158 5.72056880e-04
159 -9.39461047e-04
160 3.12824487e-04
161 -2.86389333e-04
162 5.33327671e-04
163 -8.22691139e-04
164 9.52602870e-04
165 1.74940739e-03
166 -1.28673492e-04
167 3.75830118e-04
168 -1.18008783e-03
169 7.47220734e-04
170 9.11689531e-04
171 -3.09076660e-04
172 4.08521435e-04
173 1.47688908e-03
174 1.44088089e-04
175 1.09765970e-03
176 9.36053614e-04
177 -4.84999974e-04
178 3.08166761e-04
179 6.90075300e-05
180 1.83129276e-04
181 7.57610887e-04
182 -3.26978354e-05
183 3.85249362e-04
184 4.41295835e-06
185 -4.37565444e-04
186 4.91974698e-04
187 9.33271548e-04
188 -1.27811165e-03
189 2.97167581e-04
190 -1.96359909e-04
191 1.40536143e-04
192 -9.41380070e-04
193 5.65310072e-04
194 1.02936080e-03
195 4.50575983e-05
196 1.41298428e-03
197 5.74562765e-04
198 7.00538246e-04
199 -6.57336531e-05
200 -6.72233345e-04
201 5.63701851e-04
202 -3.29978764e-05
203 -1.83933135e-04
204 6.27924101e-04
205 -3.20915639e-04
206 9.35815578e-04
207 -4.30749250e-05
208 3.66209506e-04
209 4.38741428e-04
210 -2.61080491e-04
211 1.16479663e-03
212 -5.64716781e-04
213 -7.99248025e-04
214 9.73334689e-04
215 -5.80058450e-04
216 -5.79647724e-04
217 1.20038081e-04
218 -1.70667955e-04
219 7.92228039e-04
220 -1.44524394e-04
221 7.80263196e-04
222 4.54411171e-04
223 3.34146613e-04
224 2.55182504e-04
225 3.96092606e-05
226 8.31500824e-04
227 -3.99325878e-04
228 1.10968934e-04
229 -5.22975113e-04
230 8.52603525e-04
231 -3.86765698e-05
232 1.59998800e-04
233 1.44951972e-03
234 1.53789963e-04
235 -3.19963113e-04
236 1.17706784e-04
237 -2.57595830e-04
238 3.32487695e-04
239 2.94318197e-04
240 -8.99561436e-04
241 -6.02582872e-04
242 -2.28637384e-04
243 3.00398147e-04
244 -6.69798796e-04
245 -3.81334467e-04
246 -7.01255888e-04
247 -3.11319015e-04
248 -1.00322192e-03
249 3.06455813e-04
250 -3.51904377e-04
251 -9.88998842e-04
252 1.12243963e-03
253 3.89464392e-04
254 1.81788752e-04
255 2.10919581e-04
256 -1.24519750e-03
257 1.34316603e-03
258 6.00630079e-04
259 -4.79327698e-04
260 8.64385264e-04
261 5.00822431e-04
262 2.61946343e-04
263 8.72014983e-04
264 7.48731698e-04
265 5.38799671e-04
266 1.42788689e-04
267 -5.75935663e-04
268 4.06445008e-04
269 6.76869007e-04
270 1.16399673e-05
271 6.95530992e-04
272 -1.80504671e-04
273 8.42354052e-04
274 4.64942200e-04
275 9.54057892e-04
276 9.81171874e-04
277 2.52834057e-03
278 1.90531496e-03
279 2.51846211e-03
280 2.61648865e-03
281 3.61482029e-03
282 3.02114622e-03
283 3.92182380e-03
284 4.92869364e-03
285 5.43225138e-03
286 5.70187719e-03
287 4.83879675e-03
288 6.04181987e-03
289 5.36952557e-03
290 4.73283109e-03
291 5.72622974e-03
292 6.11246204e-03
293 3.74264176e-03
294 3.81711101e-03
295 3.29008970e-03
296 2.99525635e-03
297 2.54480593e-03
298 3.14754637e-03
299 3.68738558e-03
300 3.40166693e-03
301 3.76033494e-03
302 3.68694140e-03
303 3.21812209e-03
304 2.61979439e-03
305 2.53780495e-03
306 3.17861003e-03
307 3.16344484e-03
308 3.37431852e-03
309 2.87866815e-03
310 3.56783783e-03
311 2.93571031e-03
312 2.01509989e-03
313 1.05567363e-03
314 2.10441837e-03
315 2.22918706e-03
316 9.50034641e-04
317 1.30042446e-03
318 1.15243877e-03
319 9.74328938e-04
320 3.52713712e-04
321 1.17404014e-03
322 3.41163762e-04
323 1.09423701e-03
324 6.50107940e-04
325 2.48407788e-04
326 6.79491800e-04
327 -9.10806144e-04
328 6.14464636e-04
329 -6.93137799e-05
330 -9.60080832e-05
331 -1.27459705e-04
332 8.71885856e-04
333 2.27665824e-04
334 -4.28370691e-04
335 1.13085632e-04
336 -5.95370696e-04
337 7.77212262e-04
338 1.07797283e-03
339 9.81389135e-04
340 -1.06916297e-04
341 -2.84947751e-04
342 -1.07421734e-03
343 5.81459003e-04
344 7.38286520e-04
345 8.99670089e-04
346 -6.21194968e-04
347 -2.84821686e-04
348 6.81436178e-04
349 -2.61702930e-05
350 -2.15576204e-04
351 -2.09179062e-04
352 3.02782437e-04
353 9.54078538e-04
354 3.80621125e-04
355 6.34323666e-04
356 5.68529680e-04
357 -3.04240950e-04
358 -6.46601804e-04
359 6.63188806e-04
360 6.03049515e-04
361 -3.60416564e-04
362 -2.74185011e-04
363 2.01828252e-04
364 -8.37587025e-04
365 -1.25621033e-04
366 -4.96539475e-04
367 -2.11896104e-04
368 8.85327687e-07
369 2.31308760e-04
370 -5.04367479e-04
371 -8.02276199e-04
372 -1.92364208e-05
373 5.15751554e-04
374 6.70397210e-05
375 -6.31988288e-04
376 -2.41219982e-04
377 -3.63768270e-04
378 -1.61298603e-03
379 -7.81671812e-04
380 -2.06888376e-04
381 1.95042417e-04
382 6.77510797e-04
383 3.36626758e-04
384 -9.43764755e-04
385 -2.04539742e-04
386 6.17171589e-04
387 -7.98803548e-04
388 -4.86209059e-04
389 -2.30537576e-04
390 -2.48533735e-04
391 5.44940353e-04
392 -3.59639758e-04
393 -1.33641555e-03
394 -3.88742504e-04
395 -1.18808731e-03
396 -1.23268576e-03
397 -4.77530636e-04
398 -1.29972491e-03
399 5.28198853e-04
400 -1.25102668e-03
401 -8.71193611e-04
402 2.81690126e-04
403 -1.22722583e-03
404 -1.67791189e-04
405 -1.12814697e-03
406 -8.03358380e-04
407 -7.81453218e-05
408 1.19045802e-03
409 7.11005681e-04
410 6.50243103e-04
411 2.38236419e-04
412 3.11489271e-04
413 -7.43928224e-04
414 -3.73171680e-04
415 -3.72084792e-04
416 5.36464545e-05
417 -5.18175698e-04
418 -7.98242128e-06
419 7.64017737e-04
420 1.27056125e-04
421 4.02567397e-04
422 6.04995801e-04
423 1.20339688e-04
424 1.40038613e-03
425 2.56204489e-04
426 -4.30754434e-04
427 -1.95395299e-04
428 -1.21422432e-03
429 -8.46471301e-04
430 -4.06985732e-04
431 -5.00841204e-04
432 -2.68332319e-04
433 -3.70484500e-04
434 -9.56415605e-04
435 8.15824774e-05
436 4.66326826e-04
437 -5.57158144e-04
438 -2.24842229e-04
439 4.25654624e-04
440 -6.85078997e-04
441 6.36359680e-04
442 -1.21531736e-04
443 -4.41236191e-04
444 -2.32689884e-04
445 8.75502516e-05
446 9.77924635e-05
447 1.40265907e-04
448 -8.90809425e-04
449 -7.77362281e-04
450 -1.29147158e-03
451 -1.27231218e-03
452 1.65521216e-04
453 -2.14573182e-04
454 -8.19481392e-04
455 8.18653082e-04
456 3.26077741e-04
457 -6.96842326e-04
458 -1.24772053e-03
459 -2.14615690e-04
460 1.12719000e-03
461 3.27410799e-04
462 -1.43560946e-06
463 2.72298757e-04
464 -7.19718702e-04
465 -6.63356848e-04
466 -1.33474731e-03
467 -7.22815139e-04
468 8.56971414e-04
469 -3.78568909e-04
470 -7.21185956e-04
471 1.10087556e-03
472 -9.55705229e-04
473 -4.57126312e-04
474 -1.01652776e-03
475 3.28365879e-04
476 -6.29129046e-04
477 -8.01747715e-04
478 1.29923885e-04
479 -8.59088867e-04
480 -6.48915336e-04
481 -1.37803980e-04
482 -3.10474149e-04
483 -1.39143921e-03
484 -7.94678049e-04
485 8.45297841e-04
486 3.56826713e-05
487 -7.11718660e-04
488 -1.19059181e-03
489 3.39323924e-04
490 -1.38678743e-03
491 -8.80090916e-04
492 1.62927517e-04
493 4.22021203e-04
494 -5.58471657e-04
495 -1.02097194e-03
496 1.09579505e-04
497 -1.25627750e-04
498 -6.03776113e-04
499 -1.04715668e-03
500 4.57546051e-04
501 1.86597454e-04
502 3.03183694e-04
503 -7.69735268e-04
504 -1.54785087e-04
505 1.23231000e-03
506 4.10166113e-04
507 -8.33581712e-04
508 4.30114813e-04
509 3.46624600e-04
510 4.66698447e-04
511 -9.99778937e-04
512 -3.54388478e-04
513 5.90145125e-04
514 -8.86649630e-04
515 -8.34264915e-04
516 -1.65629979e-04
517 7.46344520e-04
518 1.63893023e-04
519 -1.17750824e-03
520 9.21633188e-04
521 3.40560615e-04
522 -1.63845459e-05
523 5.40929792e-05
524 -4.51641272e-04
525 -2.33413954e-04
526 -7.68268803e-06
527 1.09713604e-03
528 -3.85990735e-04
529 -1.59249360e-04
530 -2.49595691e-04
531 -6.53325569e-04
532 -6.20631641e-04
533 6.23913838e-04
534 4.67146336e-04
535 -7.15308827e-04
536 4.41453252e-04
537 7.11277458e-04
538 -3.95878001e-04
539 -2.75739346e-04
540 -2.86156953e-04
541 5.24925571e-04
542 -2.19381788e-04
543 1.23435138e-04
544 -9.26299755e-04
545 -7.41637923e-04
546 5.29633637e-04
547 -2.14646338e-04
548 1.65336167e-04
549 8.27023429e-05
550 3.05094906e-05
551 -1.71928779e-04
552 7.48731082e-04
553 1.04290575e-03
554 4.08173662e-05
555 -1.04480931e-03
556 4.50891327e-04
557 1.30008438e-03
558 -3.33026715e-04
559 -7.56069319e-04
560 3.87168736e-05
561 9.86571508e-05
562 7.34431388e-04
563 -1.07670489e-04
564 8.57453480e-04
565 4.42479951e-04
566 -4.11573617e-04
567 1.02008822e-03
568 9.46494342e-04
569 1.00815257e-04
570 -8.29786220e-04
571 3.81018242e-04
572 -1.53701071e-04
573 -6.96941310e-04
574 -9.42620498e-05
575 -7.46242149e-04
576 -9.34481841e-04
577 6.00681803e-04
578 -3.26755922e-04
579 -1.06552779e-04
580 1.05782347e-03
581 1.23205843e-03
582 -3.27166915e-04
583 -1.01997966e-04
584 9.40653300e-04
585 3.39065480e-04
586 -3.41364508e-04
587 -7.43100373e-04
588 -5.68981981e-04
589 -8.64865741e-05
590 1.50661517e-03
591 6.23460925e-05
592 -6.08922256e-04
593 4.96688123e-04
594 8.65477501e-04
595 1.82300224e-04
596 8.89101293e-04
597 2.44579656e-04
598 -7.89435794e-04
599 1.11568971e-03
600 5.81069580e-04
601 -4.07575905e-04
602 3.82121925e-04
603 -2.57986721e-04
604 -1.04309628e-03
605 -7.58164048e-04
606 -2.30571785e-04
607 1.66124207e-04
608 6.72613970e-05
609 -1.47769142e-04
610 -4.52353370e-04
611 -2.39371956e-05
612 5.80464904e-04
613 -4.87406561e-04
614 9.33667752e-04
615 -1.40729828e-04
616 -6.92637208e-04
617 -8.92017028e-05
618 -2.41684643e-04
619 1.06582235e-03
620 1.13380813e-04
621 -3.16600725e-04
622 4.51618065e-05
623 9.94280398e-05
624 -4.51041569e-05
625 1.35943793e-04
626 -3.52032756e-04
627 2.90348405e-04
628 -8.94912111e-05
629 -1.51773129e-03
630 4.95339041e-04
631 5.52825819e-05
632 6.62284490e-04
633 5.89041349e-04
634 4.81045093e-04
635 -2.45644182e-04
636 5.54585485e-04
637 6.93305280e-04
638 2.45046084e-04
639 -2.15626765e-04
640 -2.41847313e-04
641 -5.58917682e-04
642 1.77837003e-04
643 3.20185119e-04
644 4.74966093e-04
645 5.16272858e-04
646 1.13914292e-03
647 -7.92772774e-05
648 5.36395144e-04
649 7.91532155e-04
650 -3.21929364e-05
651 7.62517583e-04
652 -7.13159805e-05
653 8.51451472e-05
654 5.71863222e-04
655 6.53020610e-04
656 1.53913869e-03
657 6.75032121e-05
658 -4.75031222e-04
659 2.88331431e-04
660 3.70685996e-05
661 -1.82113493e-04
662 1.84939645e-04
663 5.84141111e-04
664 1.79335834e-04
665 5.06884415e-04
666 2.60787409e-04
667 8.84756286e-05
668 3.80634409e-04
669 7.26963161e-05
670 -3.96848989e-04
671 7.01490730e-04
672 8.07880748e-04
673 5.12671267e-04
674 -7.31750026e-04
675 4.36742888e-06
676 2.07960017e-04
677 4.28491191e-04
678 1.20282799e-04
679 4.66410874e-05
680 5.59144855e-04
681 9.31384864e-04
682 -2.04877736e-04
683 -6.27115378e-04
684 2.97600913e-04
685 -1.16968448e-04
686 -1.47375112e-04
687 -9.62083267e-05
688 -4.90438043e-04
689 1.28071900e-03
690 -4.14014510e-04
691 4.39396317e-04
692 5.57184758e-04
693 7.65971527e-04
694 3.99233068e-04
695 5.54117054e-04
696 5.92140820e-04
697 5.50935558e-06
698 1.43063524e-03
699 7.26646344e-04
700 -1.25024633e-04
701 9.75198381e-05
702 2.40432101e-04
703 -1.04437201e-04
704 2.47003510e-04
705 8.23039363e-04
706 2.65470914e-04
707 1.28211325e-03
708 5.85984869e-04
709 4.67795627e-04
710 1.36127655e-03
711 4.29437896e-04
712 8.86783561e-04
713 7.87621634e-04
714 1.28035558e-03
715 1.08673156e-03
716 -3.99197213e-04
717 -5.96591144e-04
718 -1.91075708e-04
719 8.78256373e-04
720 5.71852415e-04
721 1.65952460e-04
722 1.71672141e-04
723 -3.93650373e-04
724 2.69788177e-04
725 4.00202984e-04
726 7.11720542e-04
727 5.26065295e-04
728 -5.55233372e-04
729 -5.55735639e-04
730 -4.67360338e-04
731 7.21201583e-04
732 -4.53846195e-04
733 -4.06310785e-04
734 5.11924593e-04
735 -3.20872973e-04
736 -3.41306292e-04
737 -6.14008117e-04
738 3.03894024e-04
739 1.08381242e-03
740 1.00637289e-03
741 4.09511700e-04
742 -5.62193515e-05
743 1.28138245e-04
744 1.93851069e-04
745 4.35076150e-04
746 1.04296920e-03
747 -4.32296231e-04
748 -5.99426767e-04
749 2.18070437e-04
750 2.47783468e-04
751 2.45209800e-04
752 -5.09579689e-04
753 6.36946359e-05
754 4.97562396e-04
755 1.03254988e-03
756 1.11201636e-03
757 7.38327065e-04
758 9.84429039e-04
759 1.12082069e-05
760 -2.78774761e-04
761 -2.90243514e-04
762 -1.16186555e-05
763 1.53762575e-04
764 8.26000627e-04
765 1.33482207e-03
766 3.31806614e-04
767 -7.27543314e-04
768 -2.31615744e-04
769 1.42614403e-03
770 5.37193635e-04
771 -6.20722308e-04
772 5.11971020e-04
773 1.19326455e-03
774 1.90465210e-05
775 4.97659839e-04
776 7.09041943e-04
777 1.89660747e-04
778 1.16137943e-05
779 -3.34187549e-04
780 -1.77240058e-04
781 -8.40318577e-05
782 4.74041803e-05
783 8.30396250e-04
784 -1.71634550e-04
785 -7.05943192e-04
786 -1.61984695e-04
787 -6.65688536e-04
788 1.16769660e-04
789 9.56513035e-04
790 -2.76551729e-04
791 1.05576185e-04
792 6.19107620e-04
793 4.49760108e-04
794 1.48361037e-04
795 9.78146996e-05
796 7.11389191e-04
797 6.18866891e-04
798 4.27327665e-05
799 5.14001056e-04
800 1.08061749e-03
801 6.57648326e-04
802 1.24206554e-03
803 8.64264207e-04
804 -4.18087327e-04
805 1.24927283e-03
806 7.27600145e-04
807 2.29594448e-04
808 2.07474876e-04
809 4.82790284e-04
810 -9.30903097e-05
811 -6.55317616e-04
812 1.68906779e-04
813 2.35286931e-04
814 3.66739072e-04
815 7.99066771e-04
816 -1.90226757e-04
817 5.11800795e-04
818 1.58400149e-03
819 9.18899413e-04
820 4.88351549e-04
821 8.37938357e-04
822 -1.59798314e-04
823 -5.66814509e-04
824 3.49607169e-04
825 4.63100577e-05
826 7.09224030e-04
827 5.52298359e-04
828 -2.56859883e-04
829 7.73733188e-04
830 3.77322270e-04
831 -2.47267290e-04
832 7.80897418e-05
833 7.95168342e-04
834 6.00074323e-04
835 6.45789158e-04
836 2.14313154e-04
837 -1.47998006e-04
838 4.39576831e-04
839 8.83397056e-05
840 -5.84864332e-04
841 -3.66588675e-04
842 3.57012057e-04
843 7.66037193e-04
844 8.97361847e-04
845 8.71405507e-04
846 6.05137331e-04
847 4.59521577e-04
848 2.48391792e-04
849 -6.16022397e-05
850 1.37664203e-04
851 -1.87705940e-05
852 -3.13225404e-04
853 -1.61709329e-06
854 -1.86105546e-04
855 2.20045812e-04
856 -2.31238338e-04
857 -1.55403763e-04
858 5.38119448e-04
859 2.60732978e-05
860 1.01542475e-03
861 9.79520973e-04
862 1.40683474e-04
863 5.62068767e-04
864 6.03129898e-04
865 -3.26108769e-04
866 -3.11768907e-04
867 6.52470486e-04
868 -6.18740021e-04
869 -2.67226603e-04
870 3.24074709e-04
871 -1.31153564e-03
872 -9.94253193e-04
873 6.50180193e-04
874 1.20594064e-04
875 -5.73519853e-04
876 -3.74499603e-05
877 2.76898015e-04
878 -1.60142733e-04
879 -4.96918479e-04
880 2.24740204e-05
881 -1.47000311e-04
882 -9.20891309e-04
883 -6.14064177e-04
884 1.16301191e-04
885 7.53881409e-05
886 -1.70078215e-04
887 -5.33737226e-04
888 -5.04557838e-04
889 1.19377707e-04
890 8.44663822e-04
891 7.77130595e-04
892 2.21660615e-04
893 -9.28467428e-04
894 -9.02627263e-04
895 -4.13753648e-04
896 -3.46817707e-04
897 2.55188407e-05
898 -4.36354400e-04
899 2.19185973e-04
900 8.31232523e-04
901 -7.01044848e-04
902 -6.32178914e-04
903 4.45245895e-04
904 3.00686100e-04
905 -1.69108017e-04
906 1.32893509e-04
907 1.25038876e-04
908 -5.24819444e-04
909 -1.32979194e-03
910 -2.92529979e-04
911 6.58252018e-04
912 -1.25778936e-05
913 9.61313144e-05
914 -2.18656816e-04
915 -6.96263139e-05
916 4.58718844e-04
917 -1.71805422e-04
918 3.28174446e-04
919 5.29619937e-04
920 -5.50948209e-04
921 -3.24284760e-04
922 -1.09684168e-04
923 -4.45404585e-04
924 -8.57538872e-04
925 -1.11262145e-03
926 -4.39262811e-04
927 1.81284390e-04
928 2.87426007e-05
929 -8.77905071e-04
930 1.54595476e-04
931 6.81578693e-04
932 -4.27891291e-04
933 5.23892327e-04
934 3.05932753e-04
935 -4.85222317e-04
936 -4.26988468e-04
937 -5.18336428e-04
938 1.72793595e-04
939 5.85199135e-04
940 -4.26625831e-04
941 5.09346039e-04
942 -1.19308954e-04
943 -1.16987557e-03
944 -3.33224840e-05
945 5.74493020e-04
946 3.39467516e-04
947 -7.87146032e-04
948 2.55762522e-04
949 3.16411399e-04
950 -1.19736472e-03
951 -1.14267455e-04
952 8.76454040e-04
953 6.69870359e-04
954 -8.43735017e-04
955 -3.61994190e-04
956 1.36973597e-03
957 -1.62480682e-04
958 -3.26137264e-04
959 -6.49305084e-04
960 -5.72036760e-04
961 -1.22661859e-03
962 -5.82038936e-04
963 1.98897049e-04
964 -4.86528457e-04
965 3.64864183e-04
966 -9.17721743e-04
967 -1.00557037e-03
968 -1.08515135e-03
969 -9.24631811e-04
970 -5.42626760e-04
971 -9.56520734e-04
972 -1.01204475e-03
973 -1.39054854e-03
974 -2.64306138e-04
975 4.24473868e-05
976 -7.52132446e-04
977 2.55551764e-04
978 1.19669093e-04
979 -1.41819920e-03
980 -1.21716313e-03
981 9.19420285e-05
982 -4.37951183e-04
983 -6.88538129e-04
984 -4.36207173e-05
985 2.09343420e-04
986 -6.54825206e-04
987 -7.61589990e-04
988 -2.52861859e-04
989 4.38997205e-05
990 -3.38900468e-04
991 -1.22714381e-03
992 -4.23906688e-04
993 -7.25267069e-04
994 -7.30755530e-04
995 -2.55237465e-04
996 -9.26444517e-04
997 -1.62433364e-03
998 -5.99936074e-04
999 2.40818210e-04
1000 1.43221094e-04
1001 2.32145056e-04
1002 2.79006232e-05
1003 1.99292369e-04
1004 5.18415216e-05
1005 -3.54503510e-04
1006 -8.27466684e-04
1007 -1.27482131e-03
1008 -2.48080930e-04
1009 -3.08054241e-05
1010 -3.88271684e-04
1011 -4.74517907e-04
1012 -5.97615657e-04
1013 -1.10878592e-03
1014 -1.27148769e-03
1015 -3.81510616e-04
1016 -4.91028156e-04
1017 -5.54775674e-04
1018 -1.19582170e-04
1019 4.97552731e-06
1020 -3.25169838e-04
1021 -1.21829538e-03
1022 -4.97561123e-04
1023 -4.71246270e-04
1024 -1.19982575e-03
1025 -1.00991042e-03
1026 3.70282318e-05
1027 2.02809699e-04
1028 -8.54379805e-04
1029 -3.50886855e-04
1030 -5.95942398e-04
1031 -1.48998692e-03
1032 -1.63886218e-03
1033 -5.17170078e-04
1034 -7.50373595e-04
1035 -1.68505592e-04
1036 -1.00247867e-03
1037 -8.41507514e-04
1038 -2.90874424e-04
1039 -1.25977341e-03
1040 -1.45680884e-03
1041 -2.00214760e-03
1042 -1.41144479e-03
1043 -2.49777557e-04
1044 -5.71313327e-04
1045 -1.29301295e-03
1046 4.27629830e-04
1047 6.52245210e-04
1048 -1.13974382e-03
1049 -1.73121616e-03
1050 -9.88551925e-04
1051 -6.29935929e-04
1052 5.14800045e-04
1053 -1.10280168e-04
1054 -1.42989481e-03
1055 -5.80114463e-04
1056 -9.89117945e-04
1057 3.87964542e-04
1058 8.50563252e-04
1059 -4.54928946e-04
1060 -5.84662471e-04
1061 -4.85806216e-04
1062 -1.84755447e-05
1063 -5.62474408e-04
1064 -5.71579297e-04
1065 -5.98004951e-04
1066 -5.68389651e-04
1067 2.20520570e-04
1068 5.75636115e-04
1069 -1.57243962e-04
1070 -9.04279127e-04
1071 -3.65649068e-04
1072 -1.75019507e-04
1073 -5.64441247e-04
1074 -3.77790598e-04
1075 -1.15855139e-04
1076 2.38560866e-04
1077 -1.92476561e-03
1078 -5.50776829e-04
1079 4.94271102e-04
1080 5.50096656e-05
1081 -2.93192763e-04
1082 -5.67213231e-04
1083 -4.41173405e-04
1084 -5.97430958e-04
1085 -6.70056557e-04
1086 -5.05853406e-04
1087 -2.67699978e-04
1088 3.93670961e-04
1089 -2.92583148e-04
1090 -5.15073772e-04
1091 8.53448970e-04
1092 1.09543360e-03
1093 4.05499573e-04
1094 4.35522075e-04
1095 -9.08887218e-04
1096 -1.80383552e-04
1097 -4.13780032e-04
1098 -9.21680195e-04
1099 3.60437453e-04
1100 1.05683588e-03
1101 6.45656991e-04
1102 -6.38249932e-04
1103 -1.12942842e-03
1104 -9.95481786e-05
1105 1.28142556e-04
1106 -3.38357453e-04
1107 -6.22511508e-04
1108 -4.47145908e-04
1109 1.87258450e-04
1110 4.22039881e-04
1111 -3.96058981e-04
1112 -1.93956374e-04
1113 1.67787696e-05
1114 -5.27940450e-04
1115 -1.14905130e-03
1116 -7.89540550e-06
1117 8.11170347e-04
1118 3.87243554e-04
1119 2.15310466e-04
1120 2.19131697e-04
1121 -4.15377049e-04
1122 -1.15092424e-03
1123 5.34809929e-05
1124 -6.22083927e-05
1125 -5.20968633e-04
1126 1.60041476e-04
1127 -5.51102190e-04
1128 -9.84148811e-04
1129 -1.02471430e-03
1130 3.90621169e-04
1131 5.92241055e-04
1132 3.20515383e-04
1133 6.57815950e-04
1134 -9.98494375e-05
1135 -3.53648942e-04
1136 -4.96757963e-05
1137 -5.41918220e-04
1138 -3.98560154e-05
1139 -4.61770593e-04
1140 5.25269188e-04
1141 9.93056975e-05
1142 -1.40304480e-04
1143 4.16964192e-04
1144 1.36621100e-04
1145 -8.47971448e-05
1146 -5.64588334e-04
1147 6.58651572e-04
1148 -9.58968046e-04
1149 -1.50193429e-03
1150 -2.56688146e-04
1151 -3.84447755e-04
1152 9.41216002e-04
1153 8.68256206e-04
1154 -4.49780570e-04
1155 -5.13502609e-04
1156 6.08023595e-04
1157 -1.28911996e-04
1158 -1.15625587e-03
1159 1.25022574e-04
1160 9.82054009e-05
1161 -5.39489570e-04
1162 1.51126876e-04
1163 -3.94464573e-04
1164 -5.97037310e-04
1165 -4.92852279e-04
1166 5.90038022e-04
1167 2.64283350e-04
1168 -3.34421198e-04
1169 -4.63643659e-05
1170 -8.44766953e-04
1171 9.62656470e-05
1172 6.24868577e-04
1173 5.55452516e-04
1174 1.40158965e-03
1175 1.18231914e-04
1176 -5.66032124e-04
1177 -1.73527393e-06
1178 -3.19803695e-04
1179 -6.97754155e-04
1180 -5.98593063e-04
1181 -3.17424468e-04
1182 2.33101099e-04
1183 -3.67049196e-04
1184 -8.89237442e-04
1185 -1.74854801e-04
1186 1.98536690e-04
1187 -9.53184317e-04
1188 9.37192156e-06
1189 -6.60057858e-04
1190 -5.14877962e-04
1191 -2.73330520e-04
1192 -1.79478192e-04
1193 5.31029929e-05
1194 6.43485944e-04
1195 -2.79202847e-04
1196 -3.78280987e-04
1197 -2.04915431e-04
1198 8.60050159e-04
1199 -3.79741667e-04
1200 -5.45067748e-04
1201 6.86209340e-04
1202 2.85681284e-04
1203 1.16229139e-03
1204 7.75866316e-04
1205 -1.51186714e-04
1206 -8.88511881e-05
1207 4.88128395e-04
1208 -4.64589877e-04
1209 -9.34047057e-04
1210 -9.17659930e-04
1211 3.49365711e-04
1212 -4.46875871e-05
1213 -1.50548986e-04
1214 -1.64129283e-03
1215 -7.52224783e-04
1216 2.18837545e-04
1217 3.53296809e-05
1218 -9.20940224e-04
1219 7.63376109e-04
1220 1.44615432e-04
1221 -2.80224297e-04
1222 -9.18327251e-05
1223 -7.40647805e-04
1224 5.46424323e-05
1225 9.74802701e-04
1226 2.39756262e-05
1227 1.08518734e-03
1228 6.46780836e-04
1229 -3.90299041e-04
1230 -3.25596157e-04
1231 -3.58547176e-04
1232 -5.93045475e-05
1233 2.48225253e-04
1234 8.27497185e-05
1235 -2.73646907e-04
1236 -9.33095416e-04
1237 6.65582278e-04
1238 1.21034728e-03
1239 7.65603065e-04
1240 -2.96533135e-04
1241 -2.01478740e-04
1242 -2.59577591e-04
1243 -3.31267580e-04
1244 -3.67323878e-04
1245 -5.37743234e-04
1246 3.16455302e-04
1247 -1.50001171e-04
1248 4.82067395e-04
1249 3.25245741e-04
1250 4.99809387e-04
1251 2.90092930e-04
1252 2.56080726e-06
1253 2.70187097e-04
1254 6.39129240e-05
1255 9.52805753e-04
1256 2.85430738e-04
1257 5.24209482e-05
1258 1.40778758e-04
1259 -4.74641738e-04
1260 -1.86640854e-04
1261 9.03668088e-04
1262 -5.72685080e-04
1263 -4.47607319e-04
1264 -2.46133723e-04
1265 -1.56223880e-04
1266 -3.22911163e-04
1267 1.17663254e-04
1268 1.54212034e-04
1269 5.33199862e-04
1270 7.71464272e-04
1271 -2.85070322e-05
1272 -8.72458848e-04
1273 -6.80486043e-04
1274 -5.83658854e-04
1275 2.94082324e-04
1276 -9.98111580e-04
1277 -1.10721090e-03
1278 -5.72357237e-04
1279 -6.43687299e-04
1280 -6.10727563e-04
1281 6.48984678e-04
1282 -5.47548850e-04
1283 -3.60584802e-04
1284 -4.54665585e-04
1285 -7.41523744e-04
1286 -7.28838887e-04
1287 -8.78557513e-04
1288 -4.45293539e-04
1289 -3.63862329e-04
1290 -4.84836134e-04
1291 6.01096940e-04
1292 -5.86909862e-05
1293 -1.02396230e-03
1294 4.23118414e-04
1295 -8.57447216e-04
1296 -6.42165322e-04
1297 -4.31709585e-04
1298 8.86863677e-05
1299 4.10808954e-04
1300 -1.13161126e-03
1301 6.96864562e-06
1302 -8.95846055e-04
1303 -4.26188253e-04
1304 -5.76006467e-04
1305 -7.92733384e-04
1306 -4.22115280e-04
1307 -2.55721778e-04
1308 -6.51878833e-04
1309 -5.37813872e-04
1310 5.02507839e-04
1311 -1.74059661e-04
1312 -1.51102767e-04
1313 -3.59330948e-04
1314 -7.07750482e-04
1315 2.48941423e-04
1316 -3.49154547e-04
1317 -2.27333828e-04
1318 -2.92411435e-04
1319 -3.75654265e-04
1320 8.34637485e-05
1321 2.18067910e-04
1322 -7.43564351e-04
1323 -8.21476180e-04
1324 -3.32387194e-04
1325 4.03673076e-05
1326 -4.77261967e-04
1327 -3.38787302e-04
1328 -8.91432099e-05
1329 -3.06423013e-05
1330 -6.75264086e-04
1331 -4.54688270e-04
1332 8.16185442e-04
1333 -3.74283002e-04
1334 -7.18830708e-04
1335 -9.26634848e-04
1336 -9.25646257e-04
1337 -6.09836435e-04
1338 -8.52896172e-04
1339 -1.22894379e-03
1340 -6.73463165e-04
1341 -1.44097108e-03
1342 -3.67615653e-04
1343 -1.24892474e-03
1344 -2.75888564e-04
1345 -1.43455448e-03
1346 -1.65210740e-03
1347 5.25232826e-04
1348 2.85985794e-04
1349 -6.37081480e-05
1350 -5.96980379e-04
1351 -1.29885887e-03
1352 -9.69187932e-04
1353 -7.19041945e-05
1354 -4.90322130e-04
1355 -6.45974175e-04
1356 -1.64633664e-03
1357 -7.20814646e-04
1358 -6.04116331e-04
1359 -9.90134611e-04
1360 -1.23236489e-03
1361 -1.06098939e-03
1362 -1.37831366e-03
1363 4.58813253e-04
1364 1.38003523e-03
1365 -2.38555116e-04
1366 5.19050442e-04
1367 -5.22825919e-04
1368 -8.93340550e-04
1369 -1.63366827e-03
1370 -1.79706788e-03
1371 -6.37770073e-04
1372 -1.61465469e-04
1373 -8.02548624e-04
1374 -8.54856830e-04
1375 -8.75966529e-05
1376 3.74263182e-04
1377 -3.60633088e-04
1378 -2.99745929e-05
1379 -3.22865251e-04
1380 -1.43542015e-03
1381 -3.29936103e-04
1382 -1.22293390e-03
1383 -7.08911377e-04
1384 -9.10354078e-06
1385 -5.24895440e-04
1386 -1.00134851e-04
1387 4.78537341e-05
1388 -7.47302802e-04
1389 -1.41771265e-03
1390 -1.05046018e-03
1391 7.50131574e-04
1392 -3.99580725e-04
1393 -8.52054802e-04
1394 -1.02624833e-03
1395 -5.14440995e-04
1396 -1.03174396e-03
1397 -2.64845291e-04
1398 -1.17860407e-03
1399 1.56026016e-04
1400 -3.83353960e-04
1401 -1.50367078e-03
1402 7.66119291e-04
1403 -3.78068287e-04
1404 -9.97964796e-04
1405 -6.04725869e-04
1406 -5.71920315e-04
1407 -6.22361085e-04
1408 -3.13307488e-04
1409 -1.40136574e-03
1410 -9.47224831e-04
1411 -1.75175506e-03
1412 -1.88708702e-03
1413 -1.53986180e-03
1414 -3.73892137e-04
1415 3.90218452e-05
1416 -4.34790100e-04
1417 -1.16479483e-03
1418 -4.47462593e-04
1419 2.36490919e-04
1420 -7.63972150e-04
1421 -3.74867562e-04
1422 1.43793138e-05
1423 -2.53279478e-04
1424 -1.31447865e-03
1425 -1.39387343e-03
1426 -4.80330793e-04
1427 -5.18937797e-04
1428 -7.29884767e-04
1429 -1.09379635e-03
1430 -1.26175134e-03
1431 -5.95742863e-04
1432 -5.49782040e-04
1433 -7.05452889e-04
1434 -1.18944920e-04
1435 -1.84689699e-04
1436 6.90999967e-04
1437 7.92977514e-04
1438 -1.96248082e-04
1439 -7.86978502e-04
1440 -4.23837070e-04
1441 -9.26589507e-04
1442 -1.92431678e-03
1443 -1.47047117e-03
1444 -9.70251111e-04
1445 -7.96820787e-04
1446 3.56285021e-05
1447 -1.22214761e-04
1448 2.26443242e-04
1449 6.98233676e-05
1450 -6.59609889e-04
1451 -2.30059015e-04
1452 -5.59399721e-04
1453 -2.94454650e-04
1454 -1.43539782e-03
1455 -1.00053390e-03
1456 -5.13187093e-04
1457 -2.21211076e-03
1458 -7.55898477e-04
1459 3.71015243e-04
1460 -1.27367778e-04
1461 -1.41828417e-03
1462 -2.43231066e-04
1463 7.43706039e-05
1464 -7.07691200e-04
1465 1.08728674e-04
1466 -1.95065373e-04
1467 -3.14717458e-04
1468 -1.98016373e-04
1469 -1.42900941e-03
1470 -9.08672914e-04
1471 -5.18658772e-04
1472 -1.16440046e-03
1473 -2.55998426e-06
1474 -3.53789742e-04
1475 4.99074765e-04
1476 2.68199792e-04
1477 -2.46211583e-04
1478 -4.79556331e-04
1479 -2.83653845e-04
1480 5.17087480e-04
1481 -6.09322914e-04
1482 -3.41628779e-04
1483 -4.58203530e-04
1484 2.58923152e-04
1485 -8.13288102e-04
1486 -3.19018678e-04
1487 -2.73548242e-04
1488 -9.43454720e-04
1489 -8.71004751e-05
1490 4.56148109e-04
1491 -4.12225086e-04
1492 6.69277164e-04
1493 -8.09148446e-05
1494 -1.09487490e-03
1495 -9.94659106e-04
1496 1.99610729e-04
1497 -7.34391555e-04
1498 6.06131615e-04
1499 -1.50288938e-03
1500 8.79715200e-05
1501 5.39647641e-04
1502 -7.15275080e-04
1503 -1.38049726e-04
1504 -2.26933892e-04
1505 -5.64916269e-04
1506 -1.74791245e-03
1507 -2.60114513e-04
1508 -3.57521382e-04
1509 -2.40138322e-04
1510 4.03212685e-04
1511 6.85634998e-04
1512 3.00668245e-04
1513 -6.93048678e-04
1514 -3.55563823e-04
1515 2.97695171e-04
1516 -2.85105446e-04
1517 -6.86359372e-04
1518 1.56200359e-04
1519 5.18957048e-04
1520 2.93773351e-04
1521 7.25298600e-04
1522 6.72782106e-04
1523 -2.69304583e-05
1524 -5.38308746e-04
1525 -2.93585850e-04
1526 -6.19794444e-04
1527 -6.15577617e-05
1528 -6.62171662e-04
1529 8.39655297e-04
1530 1.47494213e-04
1531 -8.10851099e-04
1532 -1.59334545e-04
1533 9.97414190e-04
1534 2.97039995e-04
1535 -5.45775467e-04
1536 -1.21655756e-04
1537 -2.77371598e-04
1538 -8.39078162e-04
1539 -1.10678835e-04
1540 3.87970091e-04
1541 -4.25784649e-04
1542 -3.43003626e-04
1543 -5.05161215e-04
1544 1.28734763e-03
1545 1.50381152e-04
1546 -6.97730795e-04
1547 -5.99605404e-04
1548 4.69944196e-04
1549 4.95695613e-04
1550 2.33489532e-04
1551 3.64575929e-04
1552 -4.83119260e-04
1553 -2.01192930e-03
1554 1.41714182e-04
1555 -4.59749517e-04
1556 -3.01089754e-05
1557 9.55860987e-05
1558 1.06814315e-04
1559 6.04612870e-05
1560 1.53868868e-04
1561 -5.11906528e-04
1562 -4.27914319e-04
1563 -6.24803196e-05
1564 6.47143224e-05
1565 2.86685147e-04
1566 7.04406658e-04
1567 6.08435210e-04
1568 1.09178740e-03
1569 -4.27004125e-06
1570 1.33088308e-04
1571 3.24052667e-04
1572 8.87367037e-04
1573 3.67015992e-05
1574 -3.66618349e-04
1575 4.19117690e-04
1576 -1.75319346e-04
1577 -7.14582676e-04
1578 6.60666311e-04
1579 -5.94652741e-04
1580 -8.66633052e-04
1581 9.51862842e-04
1582 5.78547435e-04
1583 5.44630392e-04
1584 -7.33112146e-04
1585 -7.08121918e-04
1586 3.21364004e-04
1587 7.66924438e-04
1588 -3.43186692e-04
1589 -4.16671728e-04
1590 -7.43363982e-04
1591 -2.00862039e-04
1592 -8.76896796e-04
1593 9.75849376e-05
1594 -1.47170030e-05
1595 -1.08971192e-04
1596 4.21519468e-04
1597 2.14896349e-04
1598 2.64700511e-04
1599 1.05170488e-04
1600 1.01649050e-03
1601 4.57900932e-04
1602 -5.63202224e-04
1603 -7.56236603e-05
1604 -5.05090961e-04
1605 -3.85508593e-05
1606 5.76832803e-04
1607 2.74828470e-04
1608 5.21176452e-04
1609 -1.28749920e-03
1610 -9.13113831e-04
1611 2.04503223e-04
1612 1.43886258e-03
1613 1.53849971e-04
1614 -5.16791112e-06
1615 1.21792676e-04
1616 -2.10120858e-04
1617 -1.07022659e-03
1618 -4.47329717e-04
1619 9.46984108e-05
1620 5.10143706e-04
1621 7.81628023e-05
1622 1.65135732e-04
1623 4.61202237e-05
1624 -7.27036694e-04
1625 -2.67004379e-04
1626 -4.33359626e-04
1627 1.46702311e-04
1628 -8.26540538e-04
1629 -3.79080093e-04
1630 -2.99528194e-04
1631 1.94330909e-04
1632 1.03474752e-03
1633 4.06925926e-04
1634 1.49187439e-04
1635 9.19264038e-05
1636 -7.41538157e-04
1637 -3.56189769e-05
1638 -5.97946989e-04
1639 -1.04820779e-03
1640 1.61038311e-04
1641 -5.36778633e-04
1642 -1.23407031e-03
1643 -1.10641969e-04
1644 -7.95836167e-04
1645 2.55432628e-04
1646 8.85712367e-05
1647 2.35034600e-04
1648 -1.28583761e-05
1649 2.22793449e-05
1650 -1.12544932e-04
1651 -1.08036911e-03
1652 -4.35345639e-04
1653 -5.86703205e-04
1654 3.56098532e-04
1655 6.74994322e-04
1656 1.66046481e-04
1657 -2.29385249e-04
1658 2.70272620e-04
1659 -8.83198002e-05
1660 2.57858103e-05
1661 -5.25646777e-04
1662 9.06906118e-04
1663 4.09871623e-04
1664 1.11016319e-04
1665 -1.17977604e-04
1666 7.78318707e-04
1667 -7.24937027e-05
1668 3.12285553e-04
1669 6.68594600e-04
1670 7.99413633e-04
1671 2.22409804e-04
1672 4.64099634e-04
1673 -1.57450770e-04
1674 -1.85393407e-04
1675 -6.50684377e-04
1676 -1.10753139e-04
1677 7.72634843e-04
1678 1.21382850e-05
1679 -1.81339485e-04
1680 9.06072726e-04
1681 1.55265193e-03
1682 -2.31484229e-04
1683 9.13537520e-04
1684 8.73611783e-04
1685 1.14737542e-03
1686 1.38346579e-04
1687 3.41009084e-04
1688 9.48502289e-04
1689 -2.15220792e-04
1690 8.36694650e-04
1691 3.26639900e-04
1692 -1.85722439e-04
1693 -1.18559864e-03
1694 5.60032988e-04
1695 -5.56878749e-04
1696 1.43546808e-03
1697 -5.60046979e-05
1698 1.87622533e-04
1699 1.74329894e-04
1700 4.66162350e-05
1701 -5.00473838e-04
1702 -6.82946177e-05
1703 2.14027887e-04
1704 4.02422118e-04
1705 5.64856435e-04
1706 -1.84470464e-04
1707 4.96116971e-04
1708 1.90997555e-04
1709 7.92750493e-05
1710 -6.43538913e-04
1711 2.78888305e-04
1712 3.66058157e-04
1713 -1.08400097e-04
1714 -1.99032003e-04
1715 -5.10677411e-04
1716 1.07139739e-03
1717 -5.18116498e-04
1718 2.72568400e-04
1719 4.51230450e-04
1720 -6.84577740e-04
1721 -1.08271117e-03
1722 1.04856080e-03
1723 8.55171272e-04
1724 1.13076628e-03
1725 -2.66535964e-04
1726 -1.02267836e-04
1727 -2.44282718e-04
1728 -9.76950877e-04
1729 -2.23591048e-05
1730 2.24797564e-04
1731 8.98242749e-05
1732 -5.85189715e-04
1733 -4.70134870e-04
1734 -8.01036778e-04
1735 -3.49834973e-04
1736 -6.34970857e-04
1737 -9.40609131e-04
1738 -2.56937423e-04
1739 -3.97466619e-04
1740 -8.49236591e-06
1741 -3.24324650e-04
1742 -1.39285918e-03
1743 -1.09033427e-03
1744 2.93613873e-04
1745 -4.14479671e-04
1746 -6.31064164e-04
1747 -3.25251883e-04
1748 -6.76336920e-04
1749 2.66817525e-05
1750 -1.50252500e-05
1751 5.23906844e-04
1752 -2.00175527e-03
1753 -5.77252035e-04
1754 -6.68701443e-04
1755 -2.42042477e-04
1756 -5.63892977e-04
1757 -6.09539607e-04
1758 1.78901399e-04
1759 -1.12967697e-03
1760 -8.37133448e-04
1761 -1.01664206e-03
1762 -6.48109446e-04
1763 -1.60125716e-04
1764 2.02392625e-03
1765 -6.57444811e-04
1766 -1.37499566e-03
1767 -2.02062587e-04
1768 -1.80980033e-04
1769 8.73842366e-04
1770 -9.43392346e-04
1771 -4.26164406e-04
1772 -2.58250292e-04
1773 -3.76515091e-04
1774 1.52284932e-03
1775 -2.63716790e-04
1776 -6.14462719e-04
1777 -1.77330272e-04
1778 -2.82032535e-04
1779 -2.97800947e-04
1780 -9.03777902e-04
1781 -8.39538665e-04
1782 1.73295149e-04
1783 2.87019245e-04
1784 -2.05068546e-03
1785 2.73316228e-04
1786 -7.31695297e-04
1787 -7.42982900e-04
1788 -1.85647958e-03
1789 -1.25356740e-03
1790 -7.36308886e-04
1791 -1.83906075e-04
1792 -1.08112433e-03
1793 -2.99666071e-04
1794 5.09837013e-05
1795 -1.53436047e-03
1796 -6.71456749e-05
1797 -1.51996026e-04
1798 -4.36455013e-04
1799 -4.97783783e-04
1800 6.63692496e-04
1801 -8.13750491e-04
1802 -1.21552659e-03
1803 2.61693896e-04
1804 -8.17693822e-04
1805 -1.46502721e-03
1806 -6.56649728e-04
1807 -5.51724715e-04
1808 -1.09183208e-03
1809 -2.85634762e-04
1810 -1.52589153e-03
1811 -7.17970067e-04
1812 6.41427999e-04
1813 -1.14015988e-03
1814 -1.03901126e-03
1815 4.09522810e-04
1816 3.45097473e-04
1817 5.86370414e-04
1818 1.26281870e-03
1819 -1.36727698e-03
1820 -9.45617474e-04
1821 -1.36109079e-03
1822 -5.07060987e-04
1823 -5.72827323e-04
1824 -3.30403539e-05
1825 -1.03810985e-04
1826 -3.46407811e-04
1827 -1.54889337e-03
1828 -1.13111061e-03
1829 -8.83865477e-04
1830 -5.37540650e-06
1831 -9.94287868e-04
1832 -1.85991745e-03
1833 -5.49263721e-04
1834 -1.81930952e-03
1835 -1.24144379e-03
1836 4.44006243e-04
1837 -9.45021510e-04
1838 -9.86260795e-04
1839 -2.21693457e-05
1840 -1.05470842e-03
1841 9.63112134e-05
1842 -7.73401921e-04
1843 -2.71716237e-04
1844 -1.04145124e-03
1845 -6.73837355e-04
1846 -6.45837748e-04
1847 -1.59912446e-03
